[gd_scene format=2]

[node name="AstarPoint" type="Node2D"]

[node name="Point" type="Polygon2D" parent="." index="0"]

scale = Vector2( 0.5, 0.5 )
polygon = PoolVector2Array( 0, 0, 0, -10, 10, 0, 0, 10, -10, 0, 0, -10 )
uv = PoolVector2Array(  )
color = Color( 0.690846, 0.200562, 0.828125, 0.491726 )
vertex_colors = PoolColorArray(  )
offset = Vector2( 0, 0 )
antialiased = false
texture = null
texture_offset = Vector2( 0, 0 )
texture_scale = Vector2( 1, 1 )
texture_rotation_degrees = 0.0
invert_enable = false
invert_border = 100.0
_sections_unfolded = [ "Texture" ]


