[gd_resource type="TileSet" load_steps=2 format=2]

[ext_resource path="res://assets/tilemaps/LPC_terrian/terrain.png" type="Texture" id=1]

[resource]

0/name = "terrain"
0/texture = ExtResource( 1 )
0/tex_offset = Vector2( 0, 0 )
0/modulate = Color( 1, 1, 1, 1 )
0/region = Rect2( 0, 0, 1024, 1024 )
0/is_autotile = true
0/autotile/bitmask_mode = 0
0/autotile/icon_coordinate = Vector2( 2, 18 )
0/autotile/tile_size = Vector2( 16, 16 )
0/autotile/spacing = 0
0/autotile/bitmask_flags = [ Vector2( 0, 3 ), 32, Vector2( 1, 2 ), 128, Vector2( 1, 3 ), 186, Vector2( 1, 4 ), 2, Vector2( 1, 17 ), 256, Vector2( 1, 18 ), 260, Vector2( 1, 19 ), 260, Vector2( 1, 20 ), 4, Vector2( 2, 3 ), 8, Vector2( 2, 17 ), 320, Vector2( 2, 18 ), 325, Vector2( 2, 19 ), 325, Vector2( 2, 20 ), 5, Vector2( 3, 17 ), 320, Vector2( 3, 18 ), 325, Vector2( 3, 19 ), 325, Vector2( 3, 20 ), 5, Vector2( 4, 17 ), 64, Vector2( 4, 18 ), 65, Vector2( 4, 19 ), 65, Vector2( 4, 20 ), 1 ]
0/autotile/occluder_map = [  ]
0/autotile/navpoly_map = [  ]
0/autotile/priority_map = [  ]
0/occluder_offset = Vector2( 0, 0 )
0/navigation_offset = Vector2( 0, 0 )
0/shapes = [  ]
1/name = "grass"
1/texture = ExtResource( 1 )
1/tex_offset = Vector2( 0, 0 )
1/modulate = Color( 1, 1, 1, 1 )
1/region = Rect2( 0, 0, 1024, 1024 )
1/is_autotile = true
1/autotile/bitmask_mode = 0
1/autotile/icon_coordinate = Vector2( 2, 18 )
1/autotile/tile_size = Vector2( 16, 16 )
1/autotile/spacing = 0
1/autotile/bitmask_flags = [ Vector2( 1, 17 ), 256, Vector2( 1, 18 ), 260, Vector2( 1, 19 ), 260, Vector2( 1, 20 ), 4, Vector2( 2, 17 ), 320, Vector2( 2, 18 ), 325, Vector2( 2, 19 ), 325, Vector2( 2, 20 ), 5, Vector2( 3, 17 ), 320, Vector2( 3, 18 ), 325, Vector2( 3, 19 ), 325, Vector2( 3, 20 ), 5, Vector2( 4, 17 ), 64, Vector2( 4, 18 ), 65, Vector2( 4, 19 ), 65, Vector2( 4, 20 ), 1 ]
1/autotile/occluder_map = [  ]
1/autotile/navpoly_map = [  ]
1/autotile/priority_map = [  ]
1/occluder_offset = Vector2( 0, 0 )
1/navigation_offset = Vector2( 0, 0 )
1/shapes = [  ]
2/name = "dirt"
2/texture = ExtResource( 1 )
2/tex_offset = Vector2( 0, 0 )
2/modulate = Color( 1, 1, 1, 1 )
2/region = Rect2( 0, 0, 1024, 1024 )
2/is_autotile = true
2/autotile/bitmask_mode = 0
2/autotile/icon_coordinate = Vector2( 2, 6 )
2/autotile/tile_size = Vector2( 16, 16 )
2/autotile/spacing = 0
2/autotile/bitmask_flags = [ Vector2( 1, 5 ), 256, Vector2( 1, 6 ), 260, Vector2( 1, 7 ), 260, Vector2( 1, 8 ), 4, Vector2( 2, 5 ), 320, Vector2( 2, 6 ), 325, Vector2( 2, 7 ), 325, Vector2( 2, 8 ), 5, Vector2( 3, 5 ), 320, Vector2( 3, 6 ), 325, Vector2( 3, 7 ), 325, Vector2( 3, 8 ), 5, Vector2( 4, 5 ), 64, Vector2( 4, 6 ), 65, Vector2( 4, 7 ), 65, Vector2( 4, 8 ), 1 ]
2/autotile/occluder_map = [  ]
2/autotile/navpoly_map = [  ]
2/autotile/priority_map = [  ]
2/occluder_offset = Vector2( 0, 0 )
2/navigation_offset = Vector2( 0, 0 )
2/shapes = [  ]
3/name = "sand"
3/texture = ExtResource( 1 )
3/tex_offset = Vector2( 0, 0 )
3/modulate = Color( 1, 1, 1, 1 )
3/region = Rect2( 0, 0, 1024, 1024 )
3/is_autotile = true
3/autotile/bitmask_mode = 0
3/autotile/icon_coordinate = Vector2( 38, 18 )
3/autotile/tile_size = Vector2( 16, 16 )
3/autotile/spacing = 0
3/autotile/bitmask_flags = [ Vector2( 37, 17 ), 256, Vector2( 37, 18 ), 260, Vector2( 37, 19 ), 260, Vector2( 37, 20 ), 4, Vector2( 38, 17 ), 320, Vector2( 38, 18 ), 325, Vector2( 38, 19 ), 325, Vector2( 38, 20 ), 5, Vector2( 39, 17 ), 320, Vector2( 39, 18 ), 325, Vector2( 39, 19 ), 325, Vector2( 39, 20 ), 5, Vector2( 40, 17 ), 64, Vector2( 40, 18 ), 65, Vector2( 40, 19 ), 65, Vector2( 40, 20 ), 1 ]
3/autotile/occluder_map = [  ]
3/autotile/navpoly_map = [  ]
3/autotile/priority_map = [  ]
3/occluder_offset = Vector2( 0, 0 )
3/navigation_offset = Vector2( 0, 0 )
3/shapes = [  ]
4/name = "water"
4/texture = ExtResource( 1 )
4/tex_offset = Vector2( 0, 0 )
4/modulate = Color( 1, 1, 1, 1 )
4/region = Rect2( 0, 0, 1024, 1024 )
4/is_autotile = true
4/autotile/bitmask_mode = 0
4/autotile/icon_coordinate = Vector2( 32, 6 )
4/autotile/tile_size = Vector2( 16, 16 )
4/autotile/spacing = 0
4/autotile/bitmask_flags = [ Vector2( 31, 5 ), 256, Vector2( 31, 6 ), 292, Vector2( 31, 7 ), 292, Vector2( 31, 8 ), 4, Vector2( 32, 5 ), 448, Vector2( 32, 6 ), 511, Vector2( 32, 7 ), 511, Vector2( 32, 8 ), 7, Vector2( 33, 5 ), 448, Vector2( 33, 6 ), 511, Vector2( 33, 7 ), 511, Vector2( 33, 8 ), 7, Vector2( 34, 5 ), 192, Vector2( 34, 6 ), 219, Vector2( 34, 7 ), 75, Vector2( 34, 8 ), 1 ]
4/autotile/occluder_map = [  ]
4/autotile/navpoly_map = [  ]
4/autotile/priority_map = [  ]
4/occluder_offset = Vector2( 0, 0 )
4/navigation_offset = Vector2( 0, 0 )
4/shapes = [  ]
5/name = "animated_lava"
5/texture = ExtResource( 1 )
5/tex_offset = Vector2( 0, 0 )
5/modulate = Color( 1, 1, 1, 1 )
5/region = Rect2( 544, 160, 32, 32 )
5/is_autotile = false
5/occluder_offset = Vector2( 0, 0 )
5/navigation_offset = Vector2( 0, 0 )
5/shapes = [  ]
_sections_unfolded = [ "0", "1", "5", "Resource" ]

