[gd_scene load_steps=2 format=2]

[ext_resource path="res://assets/tilemaps/mainatlas.png" type="Texture" id=1]

[node name="Node" type="Node"]

[node name="mainatlas" type="Sprite" parent="." index="0"]

texture = ExtResource( 1 )
centered = false
_sections_unfolded = [ "Offset" ]


