{
  "waves": [
    {
      "id" : "1",
      "intval" : 2.0,
      "enemies" : [
        {
          "type": "goku", 
          "intval": 2.0, 
          
          "path": [
            {"x": 168.617996, "y": 647.877014},
            {"x": 267.12085, "y": 647.877014},
            {"x": 472.377625, "y": 634.84491},
            {"x": 477.264648, "y": 478.458862},
            {"x": 737.266113, "y": 478.458862},
            {"x": 1034.267822, "y": 485.458893},
            {"x": 1122.268311, "y": 427.458588},
            {"x": 1229.268921, "y": 429.458618}
          ]
        },
        {
          "type": "cell", 
          "intval": 2.0, 
          
          "path": [
            {"x": 168.617996, "y": 647.877014},
            {"x": 267.12085, "y": 647.877014},
            {"x": 472.377625, "y": 634.84491},
            {"x": 477.264648, "y": 478.458862},
            {"x": 737.266113, "y": 478.458862},
            {"x": 1034.267822, "y": 485.458893},
            {"x": 1122.268311, "y": 427.458588},
            {"x": 1229.268921, "y": 429.458618}
          ]
        },
        {
          "type": "tank", 
          "intval": 2.0, 
          
          "path": [
            {"x": 168.617996, "y": 647.877014},
            {"x": 267.12085, "y": 647.877014},
            {"x": 472.377625, "y": 634.84491},
            {"x": 477.264648, "y": 478.458862},
            {"x": 737.266113, "y": 478.458862},
            {"x": 1034.267822, "y": 485.458893},
            {"x": 1122.268311, "y": 427.458588},
            {"x": 1229.268921, "y": 429.458618}
          ]
        },
        {
          "type": "goku", 
          "intval": 2.0, 
          
          "path": [
            {"x": 168.617996, "y": 647.877014},
            {"x": 267.12085, "y": 647.877014},
            {"x": 472.377625, "y": 634.84491},
            {"x": 477.264648, "y": 478.458862},
            {"x": 737.266113, "y": 478.458862},
            {"x": 1034.267822, "y": 485.458893},
            {"x": 1122.268311, "y": 427.458588},
            {"x": 1229.268921, "y": 429.458618}
          ]
        }
      ],
      "count" : 0,
      "state" : 0
    },
    {
      "id" : "2",
      "intval" : 10.0,
      "enemies" : [
        {
          "type": "cell", 
          "intval": 2.0, 
          
          "path": [
            {"x": 168.617996, "y": 647.877014},
            {"x": 267.12085, "y": 647.877014},
            {"x": 472.377625, "y": 634.84491},
            {"x": 477.264648, "y": 478.458862},
            {"x": 737.266113, "y": 478.458862},
            {"x": 1034.267822, "y": 485.458893},
            {"x": 1122.268311, "y": 427.458588},
            {"x": 1229.268921, "y": 429.458618}
          ]
        },
        {
          "type": "tank", 
          "intval": 2.0, 
          
          "path": [
            {"x": 168.617996, "y": 647.877014},
            {"x": 267.12085, "y": 647.877014},
            {"x": 472.377625, "y": 634.84491},
            {"x": 477.264648, "y": 478.458862},
            {"x": 737.266113, "y": 478.458862},
            {"x": 1034.267822, "y": 485.458893},
            {"x": 1122.268311, "y": 427.458588},
            {"x": 1229.268921, "y": 429.458618}
          ]
        },
        {
          "type": "goku", 
          "intval": 2.0, 
          
          "path": [
            {"x": 168.617996, "y": 647.877014},
            {"x": 267.12085, "y": 647.877014},
            {"x": 472.377625, "y": 634.84491},
            {"x": 477.264648, "y": 478.458862},
            {"x": 737.266113, "y": 478.458862},
            {"x": 1034.267822, "y": 485.458893},
            {"x": 1122.268311, "y": 427.458588},
            {"x": 1229.268921, "y": 429.458618}
          ]
        },
        {
          "type": "cell", 
          "intval": 2.0, 
          
          "path": [
            {"x": 168.617996, "y": 647.877014},
            {"x": 267.12085, "y": 647.877014},
            {"x": 472.377625, "y": 634.84491},
            {"x": 477.264648, "y": 478.458862},
            {"x": 737.266113, "y": 478.458862},
            {"x": 1034.267822, "y": 485.458893},
            {"x": 1122.268311, "y": 427.458588},
            {"x": 1229.268921, "y": 429.458618}
          ]
        },
        {
          "type": "goku", 
          "intval": 2.0, 
          
          "path": [
            {"x": 168.617996, "y": 647.877014},
            {"x": 267.12085, "y": 647.877014},
            {"x": 472.377625, "y": 634.84491},
            {"x": 477.264648, "y": 478.458862},
            {"x": 737.266113, "y": 478.458862},
            {"x": 1034.267822, "y": 485.458893},
            {"x": 1122.268311, "y": 427.458588},
            {"x": 1229.268921, "y": 429.458618}
          ]
        },
        {
          "type": "tank", 
          "intval": 2.0, 
          
          "path": [
            {"x": 168.617996, "y": 647.877014},
            {"x": 267.12085, "y": 647.877014},
            {"x": 472.377625, "y": 634.84491},
            {"x": 477.264648, "y": 478.458862},
            {"x": 737.266113, "y": 478.458862},
            {"x": 1034.267822, "y": 485.458893},
            {"x": 1122.268311, "y": 427.458588},
            {"x": 1229.268921, "y": 429.458618}
          ]
        },
        {
          "type": "goku", 
          "intval": 2.0, 
          
          "path": [
            {"x": 168.617996, "y": 647.877014},
            {"x": 267.12085, "y": 647.877014},
            {"x": 472.377625, "y": 634.84491},
            {"x": 477.264648, "y": 478.458862},
            {"x": 737.266113, "y": 478.458862},
            {"x": 1034.267822, "y": 485.458893},
            {"x": 1122.268311, "y": 427.458588},
            {"x": 1229.268921, "y": 429.458618}
          ]
        },
        {
          "type": "cell", 
          "intval": 2.0, 
          
          "path": [
            {"x": 168.617996, "y": 647.877014},
            {"x": 267.12085, "y": 647.877014},
            {"x": 472.377625, "y": 634.84491},
            {"x": 477.264648, "y": 478.458862},
            {"x": 737.266113, "y": 478.458862},
            {"x": 1034.267822, "y": 485.458893},
            {"x": 1122.268311, "y": 427.458588},
            {"x": 1229.268921, "y": 429.458618}
          ]
        },
        {
          "type": "tank", 
          "intval": 2.0, 
          
          "path": [
            {"x": 168.617996, "y": 647.877014},
            {"x": 267.12085, "y": 647.877014},
            {"x": 472.377625, "y": 634.84491},
            {"x": 477.264648, "y": 478.458862},
            {"x": 737.266113, "y": 478.458862},
            {"x": 1034.267822, "y": 485.458893},
            {"x": 1122.268311, "y": 427.458588},
            {"x": 1229.268921, "y": 429.458618}
          ]
        },
        {
          "type": "cell", 
          "intval": 2.0, 
          
          "path": [
            {"x": 168.617996, "y": 647.877014},
            {"x": 267.12085, "y": 647.877014},
            {"x": 472.377625, "y": 634.84491},
            {"x": 477.264648, "y": 478.458862},
            {"x": 737.266113, "y": 478.458862},
            {"x": 1034.267822, "y": 485.458893},
            {"x": 1122.268311, "y": 427.458588},
            {"x": 1229.268921, "y": 429.458618}
          ]
        },
        {
          "type": "tank", 
          "intval": 2.0, 
          
          "path": [
            {"x": 168.617996, "y": 647.877014},
            {"x": 267.12085, "y": 647.877014},
            {"x": 472.377625, "y": 634.84491},
            {"x": 477.264648, "y": 478.458862},
            {"x": 737.266113, "y": 478.458862},
            {"x": 1034.267822, "y": 485.458893},
            {"x": 1122.268311, "y": 427.458588},
            {"x": 1229.268921, "y": 429.458618}
          ]
        },
        {
          "type": "cell", 
          "intval": 2.0, 
          
          "path": [
            {"x": 168.617996, "y": 647.877014},
            {"x": 267.12085, "y": 647.877014},
            {"x": 472.377625, "y": 634.84491},
            {"x": 477.264648, "y": 478.458862},
            {"x": 737.266113, "y": 478.458862},
            {"x": 1034.267822, "y": 485.458893},
            {"x": 1122.268311, "y": 427.458588},
            {"x": 1229.268921, "y": 429.458618}
          ]
        },
        {
          "type": "cell", 
          "intval": 2.0, 
          
          "path": [
            {"x": 168.617996, "y": 647.877014},
            {"x": 267.12085, "y": 647.877014},
            {"x": 472.377625, "y": 634.84491},
            {"x": 477.264648, "y": 478.458862},
            {"x": 737.266113, "y": 478.458862},
            {"x": 1034.267822, "y": 485.458893},
            {"x": 1122.268311, "y": 427.458588},
            {"x": 1229.268921, "y": 429.458618}
          ]
        },
        {
          "type": "goku", 
          "intval": 2.0, 
          
          "path": [
            {"x": 168.617996, "y": 647.877014},
            {"x": 267.12085, "y": 647.877014},
            {"x": 472.377625, "y": 634.84491},
            {"x": 477.264648, "y": 478.458862},
            {"x": 737.266113, "y": 478.458862},
            {"x": 1034.267822, "y": 485.458893},
            {"x": 1122.268311, "y": 427.458588},
            {"x": 1229.268921, "y": 429.458618}
          ]
        }
      ],
      "count" : 0,
      "state" : 0
    }
  ]
}

