[gd_scene load_steps=4 format=2]

[ext_resource path="res://assets/tilemaps/tilemap.tres" type="TileSet" id=1]
[ext_resource path="res://towers/ArchersTower.tscn" type="PackedScene" id=2]
[ext_resource path="res://towers/MainTower.tscn" type="PackedScene" id=3]

[node name="map3" type="TileMap" index="0"]

mode = 0
tile_set = ExtResource( 1 )
cell_size = Vector2( 16, 16 )
cell_quadrant_size = 16
cell_custom_transform = Transform2D( 1, 0, 0, 1, 0, 0 )
cell_half_offset = 2
cell_tile_origin = 0
cell_y_sort = false
cell_clip_uv = false
collision_use_kinematic = false
collision_friction = 1.0
collision_bounce = 0.0
collision_layer = 1
collision_mask = 1
occluder_light_mask = 1
format = 1
tile_data = PoolIntArray( 0, 14, 0, 1, 14, 0, 2, 14, 0, 3, 14, 0, 4, 14, 0, 5, 14, 0, 6, 14, 0, 7, 14, 0, 8, 14, 0, 9, 14, 0, 10, 14, 0, 11, 14, 0, 12, 14, 0, 13, 14, 0, 14, 14, 0, 15, 14, 0, 16, 14, 0, 17, 14, 0, 18, 14, 0, 19, 14, 0, 20, 14, 0, 21, 14, 0, 22, 14, 0, 23, 14, 0, 24, 14, 0, 25, 14, 0, 26, 14, 0, 27, 14, 0, 28, 14, 0, 29, 14, 0, 30, 14, 0, 31, 14, 0, 32, 14, 0, 33, 14, 0, 34, 14, 0, 35, 14, 0, 36, 14, 0, 37, 14, 0, 38, 14, 0, 39, 14, 0, 40, 14, 0, 41, 14, 0, 42, 14, 0, 43, 26, 0, 44, 30, 0, 45, 27, 0, 46, 27, 0, 47, 27, 0, 48, 27, 0, 49, 34, 0, 50, 22, 0, 51, 14, 0, 52, 14, 0, 53, 14, 0, 54, 14, 0, 55, 14, 0, 56, 14, 0, 57, 14, 0, 58, 14, 0, 59, 14, 0, 60, 14, 0, 61, 14, 0, 62, 14, 0, 63, 14, 0, 65536, 14, 0, 65537, 14, 0, 65538, 14, 0, 65539, 14, 0, 65540, 14, 0, 65541, 14, 0, 65542, 14, 0, 65543, 14, 0, 65544, 14, 0, 65545, 14, 0, 65546, 14, 0, 65547, 14, 0, 65548, 14, 0, 65549, 14, 0, 65550, 14, 0, 65551, 14, 0, 65552, 14, 0, 65553, 14, 0, 65554, 14, 0, 65555, 14, 0, 65556, 14, 0, 65557, 14, 0, 65558, 15, 0, 65559, 24, 0, 65560, 24, 0, 65561, 24, 0, 65562, 24, 0, 65563, 24, 0, 65564, 24, 0, 65565, 24, 0, 65566, 24, 0, 65567, 18, 0, 65568, 14, 0, 65569, 14, 0, 65570, 14, 0, 65571, 14, 0, 65572, 14, 0, 65573, 14, 0, 65574, 14, 0, 65575, 14, 0, 65576, 14, 0, 65577, 14, 0, 65578, 15, 0, 65579, 28, 0, 65580, 38, 0, 65581, 27, 0, 65582, 27, 0, 65583, 27, 0, 65584, 27, 0, 65585, 34, 0, 65586, 22, 0, 65587, 14, 0, 65588, 14, 0, 65589, 14, 0, 65590, 14, 0, 65591, 14, 0, 65592, 14, 0, 65593, 14, 0, 65594, 14, 0, 65595, 14, 0, 65596, 14, 0, 65597, 14, 0, 65598, 14, 0, 65599, 14, 0, 131072, 14, 0, 131073, 14, 0, 131074, 14, 0, 131075, 14, 0, 131076, 14, 0, 131077, 14, 0, 131078, 14, 0, 131079, 14, 0, 131080, 14, 0, 131081, 14, 0, 131082, 14, 0, 131083, 14, 0, 131084, 14, 0, 131085, 14, 0, 131086, 14, 0, 131087, 14, 0, 131088, 15, 0, 131089, 24, 0, 131090, 24, 0, 131091, 24, 0, 131092, 24, 0, 131093, 24, 0, 131094, 25, 0, 131095, 0, 0, 131096, 0, 0, 131097, 0, 0, 131098, 0, 0, 131099, 67, 0, 131100, 0, 0, 131101, 0, 0, 131102, 0, 0, 131103, 22, 0, 131104, 14, 0, 131105, 14, 0, 131106, 14, 0, 131107, 14, 0, 131108, 14, 0, 131109, 14, 0, 131110, 14, 0, 131111, 14, 0, 131112, 15, 0, 131113, 24, 0, 131114, 38, 0, 131115, 27, 0, 131116, 27, 0, 131117, 27, 0, 131118, 27, 0, 131119, 27, 0, 131120, 27, 0, 131121, 34, 0, 131122, 22, 0, 131123, 14, 0, 131124, 14, 0, 131125, 14, 0, 131126, 14, 0, 131127, 14, 0, 131128, 14, 0, 131129, 14, 0, 131130, 14, 0, 131131, 14, 0, 131132, 14, 0, 131133, 14, 0, 131134, 14, 0, 131135, 14, 0, 196608, 14, 0, 196609, 14, 0, 196610, 14, 0, 196611, 14, 0, 196612, 14, 0, 196613, 14, 0, 196614, 14, 0, 196615, 14, 0, 196616, 14, 0, 196617, 14, 0, 196618, 14, 0, 196619, 14, 0, 196620, 14, 0, 196621, 15, 0, 196622, 24, 0, 196623, 24, 0, 196624, 25, 0, 196625, 0, 0, 196626, 0, 0, 196627, 0, 0, 196628, 0, 0, 196629, 0, 0, 196630, 0, 0, 196631, 0, 0, 196632, 0, 0, 196633, 0, 0, 196634, 0, 0, 196635, 0, 0, 196636, 0, 0, 196637, 0, 0, 196638, 0, 0, 196639, 22, 0, 196640, 14, 0, 196641, 14, 0, 196642, 14, 0, 196643, 14, 0, 196644, 15, 0, 196645, 24, 0, 196646, 24, 0, 196647, 24, 0, 196648, 25, 0, 196649, 30, 0, 196650, 27, 0, 196651, 27, 0, 196652, 27, 0, 196653, 27, 0, 196654, 27, 0, 196655, 27, 0, 196656, 36, 0, 196657, 33, 0, 196658, 22, 0, 196659, 14, 0, 196660, 14, 0, 196661, 14, 0, 196662, 14, 0, 196663, 14, 0, 196664, 14, 0, 196665, 14, 0, 196666, 14, 0, 196667, 14, 0, 196668, 14, 0, 196669, 14, 0, 196670, 14, 0, 196671, 14, 0, 262144, 14, 0, 262145, 14, 0, 262146, 14, 0, 262147, 14, 0, 262148, 14, 0, 262149, 14, 0, 262150, 14, 0, 262151, 14, 0, 262152, 14, 0, 262153, 14, 0, 262154, 14, 0, 262155, 15, 0, 262156, 24, 0, 262157, 25, 0, 262158, 0, 0, 262159, 0, 0, 262160, 0, 0, 262161, 0, 0, 262162, 67, 0, 262163, 0, 0, 262164, 0, 0, 262165, 0, 0, 262166, 29, 0, 262167, 28, 0, 262168, 28, 0, 262169, 28, 0, 262170, 28, 0, 262171, 28, 0, 262172, 28, 0, 262173, 28, 0, 262174, 35, 0, 262175, 23, 0, 262176, 24, 0, 262177, 24, 0, 262178, 24, 0, 262179, 24, 0, 262180, 25, 0, 262181, 29, 0, 262182, 28, 0, 262183, 28, 0, 262184, 28, 0, 262185, 38, 0, 262186, 27, 0, 262187, 27, 0, 262188, 27, 0, 262189, 27, 0, 262190, 27, 0, 262191, 27, 0, 262192, 34, 0, 262193, 0, 0, 262194, 22, 0, 262195, 14, 0, 262196, 14, 0, 262197, 14, 0, 262198, 14, 0, 262199, 14, 0, 262200, 14, 0, 262201, 14, 0, 262202, 14, 0, 262203, 14, 0, 262204, 14, 0, 262205, 14, 0, 262206, 14, 0, 262207, 14, 0, 327680, 14, 0, 327681, 14, 0, 327682, 14, 0, 327683, 14, 0, 327684, 14, 0, 327685, 14, 0, 327686, 14, 0, 327687, 14, 0, 327688, 14, 0, 327689, 15, 0, 327690, 24, 0, 327691, 25, 0, 327692, 0, 0, 327693, 0, 0, 327694, 0, 0, 327695, 0, 0, 327696, 29, 0, 327697, 28, 0, 327698, 28, 0, 327699, 28, 0, 327700, 28, 0, 327701, 28, 0, 327702, 38, 0, 327703, 27, 0, 327704, 27, 0, 327705, 27, 0, 327706, 27, 0, 327707, 27, 0, 327708, 27, 0, 327709, 27, 0, 327710, 37, 0, 327711, 28, 0, 327712, 28, 0, 327713, 28, 0, 327714, 28, 0, 327715, 28, 0, 327716, 28, 0, 327717, 38, 0, 327718, 27, 0, 327719, 27, 0, 327720, 27, 0, 327721, 27, 0, 327722, 27, 0, 327723, 27, 0, 327724, 27, 0, 327725, 36, 0, 327726, 32, 0, 327727, 32, 0, 327728, 33, 0, 327729, 21, 0, 327730, 17, 0, 327731, 14, 0, 327732, 14, 0, 327733, 14, 0, 327734, 14, 0, 327735, 14, 0, 327736, 14, 0, 327737, 14, 0, 327738, 14, 0, 327739, 14, 0, 327740, 14, 0, 327741, 14, 0, 327742, 14, 0, 327743, 14, 0, 393216, 14, 0, 393217, 14, 0, 393218, 14, 0, 393219, 14, 0, 393220, 14, 0, 393221, 14, 0, 393222, 14, 0, 393223, 14, 0, 393224, 15, 0, 393225, 25, 0, 393226, 0, 0, 393227, 0, 0, 393228, 0, 0, 393229, 29, 0, 393230, 28, 0, 393231, 28, 0, 393232, 38, 0, 393233, 27, 0, 393234, 27, 0, 393235, 27, 0, 393236, 27, 0, 393237, 27, 0, 393238, 27, 0, 393239, 27, 0, 393240, 27, 0, 393241, 27, 0, 393242, 27, 0, 393243, 27, 0, 393244, 27, 0, 393245, 27, 0, 393246, 27, 0, 393247, 27, 0, 393248, 27, 0, 393249, 27, 0, 393250, 27, 0, 393251, 27, 0, 393252, 27, 0, 393253, 27, 0, 393254, 27, 0, 393255, 27, 0, 393256, 27, 0, 393257, 27, 0, 393258, 36, 0, 393259, 32, 0, 393260, 32, 0, 393261, 33, 0, 393262, 0, 0, 393263, 21, 0, 393264, 20, 0, 393265, 17, 0, 393266, 14, 0, 393267, 14, 0, 393268, 14, 0, 393269, 14, 0, 393270, 14, 0, 393271, 14, 0, 393272, 14, 0, 393273, 14, 0, 393274, 14, 0, 393275, 14, 0, 393276, 14, 0, 393277, 14, 0, 393278, 14, 0, 393279, 14, 0, 458752, 14, 0, 458753, 14, 0, 458754, 14, 0, 458755, 14, 0, 458756, 14, 0, 458757, 14, 0, 458758, 14, 0, 458759, 15, 0, 458760, 25, 0, 458761, 0, 0, 458762, 0, 0, 458763, 29, 0, 458764, 28, 0, 458765, 38, 0, 458766, 27, 0, 458767, 27, 0, 458768, 27, 0, 458769, 27, 0, 458770, 27, 0, 458771, 27, 0, 458772, 27, 0, 458773, 27, 0, 458774, 27, 0, 458775, 27, 0, 458776, 27, 0, 458777, 27, 0, 458778, 27, 0, 458779, 27, 0, 458780, 27, 0, 458781, 27, 0, 458782, 27, 0, 458783, 27, 0, 458784, 27, 0, 458785, 27, 0, 458786, 27, 0, 458787, 27, 0, 458788, 27, 0, 458789, 27, 0, 458790, 27, 0, 458791, 27, 0, 458792, 36, 0, 458793, 32, 0, 458794, 33, 0, 458795, 0, 0, 458796, 21, 0, 458797, 20, 0, 458798, 20, 0, 458799, 17, 0, 458800, 14, 0, 458801, 14, 0, 458802, 14, 0, 458803, 14, 0, 458804, 14, 0, 458805, 14, 0, 458806, 14, 0, 458807, 14, 0, 458808, 14, 0, 458809, 14, 0, 458810, 14, 0, 458811, 14, 0, 458812, 14, 0, 458813, 14, 0, 458814, 14, 0, 458815, 14, 0, 524288, 14, 0, 524289, 14, 0, 524290, 14, 0, 524291, 14, 0, 524292, 14, 0, 524293, 14, 0, 524294, 14, 0, 524295, 26, 0, 524296, 0, 0, 524297, 0, 0, 524298, 29, 0, 524299, 38, 0, 524300, 27, 0, 524301, 27, 0, 524302, 27, 0, 524303, 27, 0, 524304, 27, 0, 524305, 27, 0, 524306, 27, 0, 524307, 27, 0, 524308, 27, 0, 524309, 27, 0, 524310, 27, 0, 524311, 36, 0, 524312, 32, 0, 524313, 32, 0, 524314, 32, 0, 524315, 32, 0, 524316, 32, 0, 524317, -1073741785, 0, 524318, 27, 0, 524319, 27, 0, 524320, 27, 0, 524321, 36, 0, 524322, 32, 0, 524323, 32, 0, 524324, 32, 0, 524325, 32, 0, 524326, 32, 0, 524327, 32, 0, 524328, 33, 0, 524329, 21, 0, 524330, 20, 0, 524331, 20, 0, 524332, 17, 0, 524333, 14, 0, 524334, 14, 0, 524335, 14, 0, 524336, 14, 0, 524337, 14, 0, 524338, 14, 0, 524339, 14, 0, 524340, 14, 0, 524341, 14, 0, 524342, 14, 0, 524343, 14, 0, 524344, 14, 0, 524345, 14, 0, 524346, 14, 0, 524347, 14, 0, 524348, 14, 0, 524349, 14, 0, 524350, 14, 0, 524351, 14, 0, 589824, 14, 0, 589825, 14, 0, 589826, 14, 0, 589827, 14, 0, 589828, 14, 0, 589829, 14, 0, 589830, 15, 0, 589831, 25, 0, 589832, 0, 0, 589833, 29, 0, 589834, 38, 0, 589835, 27, 0, 589836, 27, 0, 589837, 27, 0, 589838, 27, 0, 589839, 27, 0, 589840, 27, 0, 589841, 27, 0, 589842, 36, 0, 589843, 32, 0, 589844, 32, 0, 589845, 32, 0, 589846, 32, 0, 589847, 33, 0, 589848, 0, 0, 589849, 0, 0, 589850, 0, 0, 589851, 0, 0, 589852, 0, 0, 589853, 30, 0, 589854, 27, 0, 589855, 27, 0, 589856, 27, 0, 589857, 34, 0, 589858, 0, 0, 589859, 0, 0, 589860, 0, 0, 589861, 0, 0, 589862, 0, 0, 589863, 21, 0, 589864, 20, 0, 589865, 17, 0, 589866, 14, 0, 589867, 14, 0, 589868, 14, 0, 589869, 14, 0, 589870, 14, 0, 589871, 14, 0, 589872, 14, 0, 589873, 14, 0, 589874, 14, 0, 589875, 14, 0, 589876, 14, 0, 589877, 14, 0, 589878, 14, 0, 589879, 14, 0, 589880, 14, 0, 589881, 14, 0, 589882, 14, 0, 589883, 14, 0, 589884, 14, 0, 589885, 14, 0, 589886, 14, 0, 589887, 14, 0, 655360, 14, 0, 655361, 14, 0, 655362, 14, 0, 655363, 14, 0, 655364, 14, 0, 655365, 14, 0, 655366, 26, 0, 655367, 0, 0, 655368, 0, 0, 655369, 30, 0, 655370, 27, 0, 655371, 27, 0, 655372, 27, 0, 655373, 27, 0, 655374, 36, 0, 655375, 32, 0, 655376, 32, 0, 655377, 32, 0, 655378, 33, 0, 655379, 0, 0, 655380, 0, 0, 655381, 0, 0, 655382, 0, 0, 655383, 0, 0, 655384, 0, 0, 655385, 0, 0, 655386, 0, 0, 655387, 0, 0, 655388, 0, 0, 655389, 30, 0, 655390, 27, 0, 655391, 27, 0, 655392, 27, 0, 655393, 37, 0, 655394, 35, 0, 655395, 0, 0, 655396, 127, 0, 655397, 20, 0, 655398, 20, 0, 655399, 17, 0, 655400, 14, 0, 655401, 14, 0, 655402, 14, 0, 655403, 14, 0, 655404, 14, 0, 655405, 14, 0, 655406, 14, 0, 655407, 14, 0, 655408, 14, 0, 655409, 14, 0, 655410, 14, 0, 655411, 14, 0, 655412, 14, 0, 655413, 14, 0, 655414, 14, 0, 655415, 14, 0, 655416, 14, 0, 655417, 14, 0, 655418, 14, 0, 655419, 14, 0, 655420, 14, 0, 655421, 14, 0, 655422, 14, 0, 655423, 14, 0, 720896, 14, 0, 720897, 14, 0, 720898, 14, 0, 720899, 14, 0, 720900, 14, 0, 720901, 14, 0, 720902, 26, 0, 720903, 60, 0, 720904, 61, 0, 720905, 30, 0, 720906, 27, 0, 720907, 27, 0, 720908, 27, 0, 720909, 36, 0, 720910, 33, 0, 720911, 0, 0, 720912, 64, 0, 720913, 65, 0, 720914, 0, 0, 720915, 0, 0, 720916, 0, 0, 720917, 69, 0, 720918, 69, 0, 720919, 69, 0, 720920, 69, 0, 720921, 69, 0, 720922, 0, 0, 720923, 0, 0, 720924, 0, 0, 720925, 30, 0, 720926, 27, 0, 720927, 27, 0, 720928, 27, 0, 720929, 27, 0, 720930, 34, 0, 720931, 0, 0, 720932, 127, 0, 720933, 14, 0, 720934, 14, 0, 720935, 14, 0, 720936, 14, 0, 720937, 14, 0, 720938, 14, 0, 720939, 14, 0, 720940, 14, 0, 720941, 14, 0, 720942, 14, 0, 720943, 14, 0, 720944, 14, 0, 720945, 14, 0, 720946, 14, 0, 720947, 14, 0, 720948, 14, 0, 720949, 14, 0, 720950, 14, 0, 720951, 14, 0, 720952, 14, 0, 720953, 14, 0, 720954, 14, 0, 720955, 14, 0, 720956, 14, 0, 720957, 14, 0, 720958, 14, 0, 720959, 14, 0, 786432, 14, 0, 786433, 14, 0, 786434, 14, 0, 786435, 14, 0, 786436, 14, 0, 786437, 14, 0, 786438, 26, 0, 786439, 63, 0, 786440, 62, 0, 786441, 30, 0, 786442, 27, 0, 786443, 27, 0, 786444, 27, 0, 786445, 34, 0, 786446, 0, 0, 786447, 0, 0, 786448, 0, 0, 786449, 0, 0, 786450, 0, 0, 786451, 0, 0, 786452, 0, 0, 786453, 74, 0, 786454, 74, 0, 786455, 74, 0, 786456, 74, 0, 786457, 74, 0, 786458, 0, 0, 786459, 0, 0, 786460, 0, 0, 786461, 31, 0, 786462, -1073741785, 0, 786463, 27, 0, 786464, 27, 0, 786465, 27, 0, 786466, 34, 0, 786467, 0, 0, 786468, 127, 0, 786469, 14, 0, 786470, 14, 0, 786471, 14, 0, 786472, 14, 0, 786473, 14, 0, 786474, 14, 0, 786475, 14, 0, 786476, 14, 0, 786477, 14, 0, 786478, 14, 0, 786479, 14, 0, 786480, 14, 0, 786481, 14, 0, 786482, 14, 0, 786483, 14, 0, 786484, 14, 0, 786485, 14, 0, 786486, 14, 0, 786487, 14, 0, 786488, 14, 0, 786489, 14, 0, 786490, 14, 0, 786491, 14, 0, 786492, 14, 0, 786493, 14, 0, 786494, 14, 0, 786495, 14, 0, 851968, 14, 0, 851969, 14, 0, 851970, 14, 0, 851971, 14, 0, 851972, 14, 0, 851973, 14, 0, 851974, 26, 0, 851975, 0, 0, 851976, 0, 0, 851977, 30, 0, 851978, 27, 0, 851979, 27, 0, 851980, 27, 0, 851981, 34, 0, 851982, 0, 0, 851983, 0, 0, 851984, 0, 0, 851985, 0, 0, 851986, 0, 0, 851987, 0, 0, 851988, 0, 0, 851989, 0, 0, 851990, 0, 0, 851991, 0, 0, 851992, 0, 0, 851993, 0, 0, 851994, 0, 0, 851995, 0, 0, 851996, 0, 0, 851997, 0, 0, 851998, 30, 0, 851999, 27, 0, 852000, 27, 0, 852001, 27, 0, 852002, 34, 0, 852003, 0, 0, 852004, 127, 0, 852005, 14, 0, 852006, 14, 0, 852007, 14, 0, 852008, 14, 0, 852009, 14, 0, 852010, 14, 0, 852011, 14, 0, 852012, 14, 0, 852013, 14, 0, 852014, 14, 0, 852015, 14, 0, 852016, 14, 0, 852017, 14, 0, 852018, 14, 0, 852019, 14, 0, 852020, 14, 0, 852021, 14, 0, 852022, 14, 0, 852023, 14, 0, 852024, 14, 0, 852025, 14, 0, 852026, 14, 0, 852027, 14, 0, 852028, 14, 0, 852029, 14, 0, 852030, 14, 0, 852031, 14, 0, 917504, 14, 0, 917505, 14, 0, 917506, 14, 0, 917507, 14, 0, 917508, 14, 0, 917509, 14, 0, 917510, 26, 0, 917511, 0, 0, 917512, 0, 0, 917513, 30, 0, 917514, 27, 0, 917515, 27, 0, 917516, 27, 0, 917517, 34, 0, 917518, 0, 0, 917519, 0, 0, 917520, 0, 0, 917521, 0, 0, 917522, 0, 0, 917523, 67, 0, 917524, 0, 0, 917525, 67, 0, 917526, 0, 0, 917527, 0, 0, 917528, 0, 0, 917529, 0, 0, 917530, 0, 0, 917531, 0, 0, 917532, 0, 0, 917533, 0, 0, 917534, 30, 0, 917535, 27, 0, 917536, 27, 0, 917537, 27, 0, 917538, 34, 0, 917539, 0, 0, 917540, 127, 0, 917541, 14, 0, 917542, 14, 0, 917543, 14, 0, 917544, 14, 0, 917545, 14, 0, 917546, 14, 0, 917547, 14, 0, 917548, 14, 0, 917549, 14, 0, 917550, 14, 0, 917551, 14, 0, 917552, 14, 0, 917553, 14, 0, 917554, 14, 0, 917555, 14, 0, 917556, 14, 0, 917557, 14, 0, 917558, 14, 0, 917559, 14, 0, 917560, 14, 0, 917561, 14, 0, 917562, 14, 0, 917563, 14, 0, 917564, 14, 0, 917565, 14, 0, 917566, 14, 0, 917567, 14, 0, 983040, 14, 0, 983041, 14, 0, 983042, 14, 0, 983043, 14, 0, 983044, 14, 0, 983045, 14, 0, 983046, 26, 0, 983047, 0, 0, 983048, 0, 0, 983049, 30, 0, 983050, 27, 0, 983051, 27, 0, 983052, 27, 0, 983053, 37, 0, 983054, 28, 0, 983055, 28, 0, 983056, 28, 0, 983057, 28, 0, 983058, 35, 0, 983059, 0, 0, 983060, 0, 0, 983061, 0, 0, 983062, 0, 0, 983063, 81, 0, 983064, 83, 0, 983065, 83, 0, 983066, 84, 0, 983067, 0, 0, 983068, 0, 0, 983069, 0, 0, 983070, 30, 0, 983071, 27, 0, 983072, 27, 0, 983073, 27, 0, 983074, 34, 0, 983075, 0, 0, 983076, 127, 0, 983077, 14, 0, 983078, 14, 0, 983079, 14, 0, 983080, 14, 0, 983081, 14, 0, 983082, 14, 0, 983083, 14, 0, 983084, 14, 0, 983085, 14, 0, 983086, 14, 0, 983087, 14, 0, 983088, 14, 0, 983089, 14, 0, 983090, 14, 0, 983091, 14, 0, 983092, 14, 0, 983093, 14, 0, 983094, 14, 0, 983095, 14, 0, 983096, 14, 0, 983097, 14, 0, 983098, 14, 0, 983099, 14, 0, 983100, 14, 0, 983101, 14, 0, 983102, 14, 0, 983103, 14, 0, 1048576, 14, 0, 1048577, 14, 0, 1048578, 14, 0, 1048579, 14, 0, 1048580, 14, 0, 1048581, 14, 0, 1048582, 26, 0, 1048583, 0, 0, 1048584, 0, 0, 1048585, 30, 0, 1048586, 27, 0, 1048587, 27, 0, 1048588, 27, 0, 1048589, 27, 0, 1048590, 27, 0, 1048591, 27, 0, 1048592, 27, 0, 1048593, 27, 0, 1048594, 37, 0, 1048595, 28, 0, 1048596, 35, 0, 1048597, 0, 0, 1048598, 67, 0, 1048599, 82, 0, 1048600, 85, 0, 1048601, 85, 0, 1048602, 86, 0, 1048603, 0, 0, 1048604, 60, 0, 1048605, 61, 0, 1048606, 30, 0, 1048607, 27, 0, 1048608, 27, 0, 1048609, 27, 0, 1048610, 34, 0, 1048611, 0, 0, 1048612, 127, 0, 1048613, 14, 0, 1048614, 14, 0, 1048615, 14, 0, 1048616, 14, 0, 1048617, 14, 0, 1048618, 14, 0, 1048619, 14, 0, 1048620, 14, 0, 1048621, 14, 0, 1048622, 14, 0, 1048623, 14, 0, 1048624, 14, 0, 1048625, 14, 0, 1048626, 14, 0, 1048627, 14, 0, 1048628, 14, 0, 1048629, 14, 0, 1048630, 14, 0, 1048631, 14, 0, 1048632, 14, 0, 1048633, 14, 0, 1048634, 14, 0, 1048635, 14, 0, 1048636, 14, 0, 1048637, 14, 0, 1048638, 14, 0, 1048639, 14, 0, 1114112, 14, 0, 1114113, 14, 0, 1114114, 14, 0, 1114115, 14, 0, 1114116, 14, 0, 1114117, 14, 0, 1114118, 26, 0, 1114119, 0, 0, 1114120, 0, 0, 1114121, 30, 0, 1114122, 27, 0, 1114123, 27, 0, 1114124, 27, 0, 1114125, 27, 0, 1114126, 27, 0, 1114127, 27, 0, 1114128, 27, 0, 1114129, 27, 0, 1114130, 27, 0, 1114131, 27, 0, 1114132, 37, 0, 1114133, 35, 0, 1114134, 0, 0, 1114135, 0, 0, 1114136, 0, 0, 1114137, 0, 0, 1114138, 0, 0, 1114139, 0, 0, 1114140, 63, 0, 1114141, 62, 0, 1114142, 30, 0, 1114143, 27, 0, 1114144, 27, 0, 1114145, 27, 0, 1114146, 34, 0, 1114147, 65, 0, 1114148, 127, 0, 1114149, 14, 0, 1114150, 14, 0, 1114151, 14, 0, 1114152, 14, 0, 1114153, 14, 0, 1114154, 14, 0, 1114155, 14, 0, 1114156, 14, 0, 1114157, 14, 0, 1114158, 14, 0, 1114159, 14, 0, 1114160, 14, 0, 1114161, 14, 0, 1114162, 14, 0, 1114163, 14, 0, 1114164, 14, 0, 1114165, 14, 0, 1114166, 14, 0, 1114167, 14, 0, 1114168, 14, 0, 1114169, 14, 0, 1114170, 14, 0, 1114171, 14, 0, 1114172, 14, 0, 1114173, 14, 0, 1114174, 14, 0, 1114175, 14, 0, 1179648, 14, 0, 1179649, 14, 0, 1179650, 14, 0, 1179651, 14, 0, 1179652, 14, 0, 1179653, 14, 0, 1179654, 26, 0, 1179655, 67, 0, 1179656, 0, 0, 1179657, 30, 0, 1179658, 27, 0, 1179659, 27, 0, 1179660, 27, 0, 1179661, 27, 0, 1179662, 27, 0, 1179663, 27, 0, 1179664, 27, 0, 1179665, 27, 0, 1179666, 27, 0, 1179667, 27, 0, 1179668, 27, 0, 1179669, 37, 0, 1179670, 28, 0, 1179671, 28, 0, 1179672, 28, 0, 1179673, 28, 0, 1179674, 28, 0, 1179675, 28, 0, 1179676, 28, 0, 1179677, 28, 0, 1179678, 38, 0, 1179679, 27, 0, 1179680, 27, 0, 1179681, 27, 0, 1179682, 34, 0, 1179683, 0, 0, 1179684, 127, 0, 1179685, 14, 0, 1179686, 14, 0, 1179687, 14, 0, 1179688, 14, 0, 1179689, 14, 0, 1179690, 14, 0, 1179691, 14, 0, 1179692, 14, 0, 1179693, 14, 0, 1179694, 14, 0, 1179695, 14, 0, 1179696, 14, 0, 1179697, 14, 0, 1179698, 14, 0, 1179699, 14, 0, 1179700, 14, 0, 1179701, 14, 0, 1179702, 14, 0, 1179703, 14, 0, 1179704, 14, 0, 1179705, 14, 0, 1179706, 14, 0, 1179707, 14, 0, 1179708, 14, 0, 1179709, 14, 0, 1179710, 14, 0, 1179711, 14, 0, 1245184, 14, 0, 1245185, 14, 0, 1245186, 14, 0, 1245187, 14, 0, 1245188, 14, 0, 1245189, 14, 0, 1245190, 26, 0, 1245191, 0, 0, 1245192, 0, 0, 1245193, 0, 0, 1245194, 32, 0, 1245195, 32, 0, 1245196, 32, 0, 1245197, 32, 0, 1245198, 32, 0, 1245199, 32, 0, 1245200, 32, 0, 1245201, 1610612773, 0, 1245202, 27, 0, 1245203, 27, 0, 1245204, 27, 0, 1245205, 27, 0, 1245206, 27, 0, 1245207, 27, 0, 1245208, 27, 0, 1245209, 27, 0, 1245210, 27, 0, 1245211, 27, 0, 1245212, 27, 0, 1245213, 27, 0, 1245214, 27, 0, 1245215, 27, 0, 1245216, 27, 0, 1245217, 27, 0, 1245218, 34, 0, 1245219, 0, 0, 1245220, 127, 0, 1245221, 14, 0, 1245222, 14, 0, 1245223, 14, 0, 1245224, 14, 0, 1245225, 14, 0, 1245226, 14, 0, 1245227, 14, 0, 1245228, 14, 0, 1245229, 14, 0, 1245230, 14, 0, 1245231, 14, 0, 1245232, 14, 0, 1245233, 14, 0, 1245234, 14, 0, 1245235, 14, 0, 1245236, 14, 0, 1245237, 14, 0, 1245238, 14, 0, 1245239, 14, 0, 1245240, 14, 0, 1245241, 14, 0, 1245242, 14, 0, 1245243, 14, 0, 1245244, 14, 0, 1245245, 14, 0, 1245246, 14, 0, 1245247, 14, 0, 1310720, 14, 0, 1310721, 14, 0, 1310722, 14, 0, 1310723, 14, 0, 1310724, 14, 0, 1310725, 14, 0, 1310726, 16, 0, 1310727, 19, 0, 1310728, 0, 0, 1310729, 0, 0, 1310730, 0, 0, 1310731, 0, 0, 1310732, 0, 0, 1310733, 0, 0, 1310734, 0, 0, 1310735, 0, 0, 1310736, 125, 0, 1310737, 125, 0, 1310738, 32, 0, 1310739, 1610612773, 0, 1310740, 27, 0, 1310741, 27, 0, 1310742, 27, 0, 1310743, 27, 0, 1310744, 27, 0, 1310745, 27, 0, 1310746, 27, 0, 1310747, 27, 0, 1310748, 27, 0, 1310749, 27, 0, 1310750, 27, 0, 1310751, 27, 0, 1310752, 27, 0, 1310753, 27, 0, 1310754, 34, 0, 1310755, 0, 0, 1310756, 127, 0, 1310757, 14, 0, 1310758, 14, 0, 1310759, 14, 0, 1310760, 14, 0, 1310761, 14, 0, 1310762, 14, 0, 1310763, 14, 0, 1310764, 14, 0, 1310765, 14, 0, 1310766, 14, 0, 1310767, 14, 0, 1310768, 14, 0, 1310769, 14, 0, 1310770, 14, 0, 1310771, 14, 0, 1310772, 14, 0, 1310773, 14, 0, 1310774, 14, 0, 1310775, 14, 0, 1310776, 14, 0, 1310777, 14, 0, 1310778, 14, 0, 1310779, 14, 0, 1310780, 14, 0, 1310781, 14, 0, 1310782, 14, 0, 1310783, 14, 0, 1376256, 14, 0, 1376257, 14, 0, 1376258, 14, 0, 1376259, 14, 0, 1376260, 14, 0, 1376261, 14, 0, 1376262, 14, 0, 1376263, 16, 0, 1376264, 19, 0, 1376265, 0, 0, 1376266, 0, 0, 1376267, 0, 0, 1376268, 0, 0, 1376269, 67, 0, 1376270, 0, 0, 1376271, 0, 0, 1376272, 92, 0, 1376273, 92, 0, 1376274, 125, 0, 1376275, 125, 0, 1376276, 32, 0, 1376277, 32, 0, 1376278, 32, 0, 1376279, 32, 0, 1376280, 32, 0, 1376281, 32, 0, 1376282, 32, 0, 1376283, 32, 0, 1376284, 32, 0, 1376285, 32, 0, 1376286, 32, 0, 1376287, 32, 0, 1376288, 32, 0, 1376289, 32, 0, 1376290, 33, 0, 1376291, 67, 0, 1376292, 127, 0, 1376293, 14, 0, 1376294, 14, 0, 1376295, 14, 0, 1376296, 14, 0, 1376297, 14, 0, 1376298, 14, 0, 1376299, 14, 0, 1376300, 14, 0, 1376301, 14, 0, 1376302, 14, 0, 1376303, 14, 0, 1376304, 14, 0, 1376305, 14, 0, 1376306, 14, 0, 1376307, 14, 0, 1376308, 14, 0, 1376309, 14, 0, 1376310, 14, 0, 1376311, 14, 0, 1376312, 14, 0, 1376313, 14, 0, 1376314, 14, 0, 1376315, 14, 0, 1376316, 14, 0, 1376317, 14, 0, 1376318, 14, 0, 1376319, 14, 0, 1441792, 14, 0, 1441793, 14, 0, 1441794, 14, 0, 1441795, 14, 0, 1441796, 14, 0, 1441797, 14, 0, 1441798, 14, 0, 1441799, 14, 0, 1441800, 16, 0, 1441801, 20, 0, 1441802, 20, 0, 1441803, 20, 0, 1441804, 20, 0, 1441805, 20, 0, 1441806, 20, 0, 1441807, 20, 0, 1441808, 92, 0, 1441809, 92, 0, 1441810, 92, 0, 1441811, 92, 0, 1441812, 125, 0, 1441813, 125, 0, 1441814, 125, 0, 1441815, 125, 0, 1441816, 125, 0, 1441817, 125, 0, 1441818, 0, 0, 1441819, 0, 0, 1441820, 0, 0, 1441821, 0, 0, 1441822, 0, 0, 1441823, 0, 0, 1441824, 0, 0, 1441825, 0, 0, 1441826, 0, 0, 1441827, 0, 0, 1441828, 126, 0, 1441829, 14, 0, 1441830, 14, 0, 1441831, 14, 0, 1441832, 14, 0, 1441833, 14, 0, 1441834, 14, 0, 1441835, 14, 0, 1441836, 14, 0, 1441837, 14, 0, 1441838, 14, 0, 1441839, 14, 0, 1441840, 14, 0, 1441841, 14, 0, 1441842, 14, 0, 1441843, 14, 0, 1441844, 14, 0, 1441845, 14, 0, 1441846, 14, 0, 1441847, 14, 0, 1441848, 14, 0, 1441849, 14, 0, 1441850, 14, 0, 1441851, 14, 0, 1441852, 14, 0, 1441853, 14, 0, 1441854, 14, 0, 1441855, 14, 0, 1507328, 14, 0, 1507329, 14, 0, 1507330, 14, 0, 1507331, 14, 0, 1507332, 14, 0, 1507333, 14, 0, 1507334, 14, 0, 1507335, 14, 0, 1507336, 14, 0, 1507337, 14, 0, 1507338, 14, 0, 1507339, 14, 0, 1507340, 14, 0, 1507341, 14, 0, 1507342, 14, 0, 1507343, 14, 0, 1507344, 109, 0, 1507345, 95, 0, 1507346, 92, 0, 1507347, 92, 0, 1507348, 92, 0, 1507349, 92, 0, 1507350, 92, 0, 1507351, 92, 0, 1507352, 92, 0, 1507353, 92, 0, 1507354, 124, 0, 1507355, 0, 0, 1507356, 0, 0, 1507357, 0, 0, 1507358, 0, 0, 1507359, 67, 0, 1507360, 0, 0, 1507361, 0, 0, 1507362, 0, 0, 1507363, 126, 0, 1507364, 92, 0, 1507365, 14, 0, 1507366, 14, 0, 1507367, 14, 0, 1507368, 14, 0, 1507369, 14, 0, 1507370, 14, 0, 1507371, 14, 0, 1507372, 14, 0, 1507373, 14, 0, 1507374, 14, 0, 1507375, 14, 0, 1507376, 14, 0, 1507377, 14, 0, 1507378, 14, 0, 1507379, 14, 0, 1507380, 14, 0, 1507381, 14, 0, 1507382, 14, 0, 1507383, 14, 0, 1507384, 14, 0, 1507385, 14, 0, 1507386, 14, 0, 1507387, 14, 0, 1507388, 14, 0, 1507389, 14, 0, 1507390, 14, 0, 1507391, 14, 0, 1572864, 14, 0, 1572865, 14, 0, 1572866, 14, 0, 1572867, 14, 0, 1572868, 14, 0, 1572869, 14, 0, 1572870, 14, 0, 1572871, 14, 0, 1572872, 14, 0, 1572873, 14, 0, 1572874, 14, 0, 1572875, 14, 0, 1572876, 14, 0, 1572877, 14, 0, 1572878, 14, 0, 1572879, 14, 0, 1572880, 14, 0, 1572881, 14, 0, 1572882, 109, 0, 1572883, 95, 0, 1572884, 92, 0, 1572885, 92, 0, 1572886, 92, 0, 1572887, 92, 0, 1572888, 92, 0, 1572889, 92, 0, 1572890, 92, 0, 1572891, 124, 0, 1572892, 0, 0, 1572893, 0, 0, 1572894, 0, 0, 1572895, 0, 0, 1572896, 0, 0, 1572897, 0, 0, 1572898, 126, 0, 1572899, 92, 0, 1572900, 92, 0, 1572901, 14, 0, 1572902, 14, 0, 1572903, 14, 0, 1572904, 14, 0, 1572905, 14, 0, 1572906, 14, 0, 1572907, 14, 0, 1572908, 14, 0, 1572909, 14, 0, 1572910, 14, 0, 1572911, 14, 0, 1572912, 14, 0, 1572913, 14, 0, 1572914, 14, 0, 1572915, 14, 0, 1572916, 14, 0, 1572917, 14, 0, 1572918, 14, 0, 1572919, 14, 0, 1572920, 14, 0, 1572921, 14, 0, 1572922, 14, 0, 1572923, 14, 0, 1572924, 14, 0, 1572925, 14, 0, 1572926, 14, 0, 1572927, 14, 0, 1638400, 14, 0, 1638401, 14, 0, 1638402, 14, 0, 1638403, 14, 0, 1638404, 14, 0, 1638405, 14, 0, 1638406, 14, 0, 1638407, 14, 0, 1638408, 14, 0, 1638409, 14, 0, 1638410, 14, 0, 1638411, 14, 0, 1638412, 14, 0, 1638413, 14, 0, 1638414, 14, 0, 1638415, 14, 0, 1638416, 14, 0, 1638417, 14, 0, 1638418, 14, 0, 1638419, 14, 0, 1638420, 109, 0, 1638421, 95, 0, 1638422, 95, 0, 1638423, 95, 0, 1638424, 95, 0, 1638425, 95, 0, 1638426, 107, 0, 1638427, 92, 0, 1638428, 124, 0, 1638429, 125, 0, 1638430, 125, 0, 1638431, 125, 0, 1638432, 125, 0, 1638433, 126, 0, 1638434, 92, 0, 1638435, 106, 0, 1638436, 108, 0, 1638437, 14, 0, 1638438, 14, 0, 1638439, 14, 0, 1638440, 14, 0, 1638441, 14, 0, 1638442, 14, 0, 1638443, 14, 0, 1638444, 14, 0, 1638445, 14, 0, 1638446, 14, 0, 1638447, 14, 0, 1638448, 14, 0, 1638449, 14, 0, 1638450, 14, 0, 1638451, 14, 0, 1638452, 14, 0, 1638453, 14, 0, 1638454, 14, 0, 1638455, 14, 0, 1638456, 14, 0, 1638457, 14, 0, 1638458, 14, 0, 1638459, 14, 0, 1638460, 14, 0, 1638461, 14, 0, 1638462, 14, 0, 1638463, 14, 0, 1703936, 14, 0, 1703937, 14, 0, 1703938, 14, 0, 1703939, 14, 0, 1703940, 14, 0, 1703941, 14, 0, 1703942, 14, 0, 1703943, 14, 0, 1703944, 14, 0, 1703945, 14, 0, 1703946, 14, 0, 1703947, 14, 0, 1703948, 14, 0, 1703949, 14, 0, 1703950, 14, 0, 1703951, 14, 0, 1703952, 14, 0, 1703953, 14, 0, 1703954, 14, 0, 1703955, 14, 0, 1703956, 14, 0, 1703957, 14, 0, 1703958, 14, 0, 1703959, 14, 0, 1703960, 14, 0, 1703961, 14, 0, 1703962, 109, 0, 1703963, 104, 0, 1703964, 92, 0, 1703965, 92, 0, 1703966, 92, 0, 1703967, 92, 0, 1703968, 92, 0, 1703969, 92, 0, 1703970, 106, 0, 1703971, 108, 0, 1703972, 14, 0, 1703973, 14, 0, 1703974, 14, 0, 1703975, 14, 0, 1703976, 14, 0, 1703977, 14, 0, 1703978, 14, 0, 1703979, 14, 0, 1703980, 14, 0, 1703981, 14, 0, 1703982, 14, 0, 1703983, 14, 0, 1703984, 14, 0, 1703985, 14, 0, 1703986, 14, 0, 1703987, 14, 0, 1703988, 14, 0, 1703989, 14, 0, 1703990, 14, 0, 1703991, 14, 0, 1703992, 14, 0, 1703993, 14, 0, 1703994, 14, 0, 1703995, 14, 0, 1703996, 14, 0, 1703997, 14, 0, 1703998, 14, 0, 1703999, 14, 0, 1769472, 14, 0, 1769473, 14, 0, 1769474, 14, 0, 1769475, 14, 0, 1769476, 14, 0, 1769477, 14, 0, 1769478, 14, 0, 1769479, 14, 0, 1769480, 14, 0, 1769481, 14, 0, 1769482, 14, 0, 1769483, 14, 0, 1769484, 14, 0, 1769485, 14, 0, 1769486, 14, 0, 1769487, 14, 0, 1769488, 14, 0, 1769489, 14, 0, 1769490, 14, 0, 1769491, 14, 0, 1769492, 14, 0, 1769493, 14, 0, 1769494, 14, 0, 1769495, 14, 0, 1769496, 14, 0, 1769497, 14, 0, 1769498, 14, 0, 1769499, 109, 0, 1769500, 95, 0, 1769501, 95, 0, 1769502, 95, 0, 1769503, 95, 0, 1769504, 95, 0, 1769505, 95, 0, 1769506, 108, 0, 1769507, 14, 0, 1769508, 14, 0, 1769509, 14, 0, 1769510, 14, 0, 1769511, 14, 0, 1769512, 14, 0, 1769513, 14, 0, 1769514, 14, 0, 1769515, 14, 0, 1769516, 14, 0, 1769517, 14, 0, 1769518, 14, 0, 1769519, 14, 0, 1769520, 14, 0, 1769521, 14, 0, 1769522, 14, 0, 1769523, 14, 0, 1769524, 14, 0, 1769525, 14, 0, 1769526, 14, 0, 1769527, 14, 0, 1769528, 14, 0, 1769529, 14, 0, 1769530, 14, 0, 1769531, 14, 0, 1769532, 14, 0, 1769533, 14, 0, 1769534, 14, 0, 1769535, 14, 0, 1835008, 14, 0, 1835009, 14, 0, 1835010, 14, 0, 1835011, 14, 0, 1835012, 14, 0, 1835013, 14, 0, 1835014, 14, 0, 1835015, 14, 0, 1835016, 14, 0, 1835017, 14, 0, 1835018, 14, 0, 1835019, 14, 0, 1835020, 14, 0, 1835021, 14, 0, 1835022, 14, 0, 1835023, 14, 0, 1835024, 14, 0, 1835025, 14, 0, 1835026, 14, 0, 1835027, 14, 0, 1835028, 14, 0, 1835029, 14, 0, 1835030, 14, 0, 1835031, 14, 0, 1835032, 14, 0, 1835033, 14, 0, 1835034, 14, 0, 1835035, 14, 0, 1835036, 14, 0, 1835037, 14, 0, 1835038, 14, 0, 1835039, 14, 0, 1835040, 14, 0, 1835041, 14, 0, 1835042, 14, 0, 1835043, 14, 0, 1835044, 14, 0, 1835045, 14, 0, 1835046, 14, 0, 1835047, 14, 0, 1835048, 14, 0, 1835049, 14, 0, 1835050, 14, 0, 1835051, 14, 0, 1835052, 14, 0, 1835053, 14, 0, 1835054, 14, 0, 1835055, 14, 0, 1835056, 14, 0, 1835057, 14, 0, 1835058, 14, 0, 1835059, 14, 0, 1835060, 14, 0, 1835061, 14, 0, 1835062, 14, 0, 1835063, 14, 0, 1835064, 14, 0, 1835065, 14, 0, 1835066, 14, 0, 1835067, 14, 0, 1835068, 14, 0, 1835069, 14, 0, 1835070, 14, 0, 1835071, 14, 0, 1900544, 14, 0, 1900545, 14, 0, 1900546, 14, 0, 1900547, 14, 0, 1900548, 14, 0, 1900549, 14, 0, 1900550, 14, 0, 1900551, 14, 0, 1900552, 14, 0, 1900553, 14, 0, 1900554, 14, 0, 1900555, 14, 0, 1900556, 14, 0, 1900557, 14, 0, 1900558, 14, 0, 1900559, 14, 0, 1900560, 14, 0, 1900561, 14, 0, 1900562, 14, 0, 1900563, 14, 0, 1900564, 14, 0, 1900565, 14, 0, 1900566, 14, 0, 1900567, 14, 0, 1900568, 14, 0, 1900569, 14, 0, 1900570, 14, 0, 1900571, 14, 0, 1900572, 14, 0, 1900573, 14, 0, 1900574, 14, 0, 1900575, 14, 0, 1900576, 14, 0, 1900577, 14, 0, 1900578, 14, 0, 1900579, 14, 0, 1900580, 14, 0, 1900581, 14, 0, 1900582, 14, 0, 1900583, 14, 0, 1900584, 14, 0, 1900585, 14, 0, 1900586, 14, 0, 1900587, 14, 0, 1900588, 14, 0, 1900589, 14, 0, 1900590, 14, 0, 1900591, 14, 0, 1900592, 14, 0, 1900593, 14, 0, 1900594, 14, 0, 1900595, 14, 0, 1900596, 14, 0, 1900597, 14, 0, 1900598, 14, 0, 1900599, 14, 0, 1900600, 14, 0, 1900601, 14, 0, 1900602, 14, 0, 1900603, 14, 0, 1900604, 14, 0, 1900605, 14, 0, 1900606, 14, 0, 1900607, 14, 0, 1966080, 14, 0, 1966081, 14, 0, 1966082, 14, 0, 1966083, 14, 0, 1966084, 14, 0, 1966085, 14, 0, 1966086, 14, 0, 1966087, 14, 0, 1966088, 14, 0, 1966089, 14, 0, 1966090, 14, 0, 1966091, 14, 0, 1966092, 14, 0, 1966093, 14, 0, 1966094, 14, 0, 1966095, 14, 0, 1966096, 14, 0, 1966097, 14, 0, 1966098, 14, 0, 1966099, 14, 0, 1966100, 14, 0, 1966101, 14, 0, 1966102, 14, 0, 1966103, 14, 0, 1966104, 14, 0, 1966105, 14, 0, 1966106, 14, 0, 1966107, 14, 0, 1966108, 14, 0, 1966109, 14, 0, 1966110, 14, 0, 1966111, 14, 0, 1966112, 14, 0, 1966113, 14, 0, 1966114, 14, 0, 1966115, 14, 0, 1966116, 14, 0, 1966117, 14, 0, 1966118, 14, 0, 1966119, 14, 0, 1966120, 14, 0, 1966121, 14, 0, 1966122, 14, 0, 1966123, 14, 0, 1966124, 14, 0, 1966125, 14, 0, 1966126, 14, 0, 1966127, 14, 0, 1966128, 14, 0, 1966129, 14, 0, 1966130, 14, 0, 1966131, 14, 0, 1966132, 14, 0, 1966133, 14, 0, 1966134, 14, 0, 1966135, 14, 0, 1966136, 14, 0, 1966137, 14, 0, 1966138, 14, 0, 1966139, 14, 0, 1966140, 14, 0, 1966141, 14, 0, 1966142, 14, 0, 1966143, 14, 0, 2031616, 14, 0, 2031617, 14, 0, 2031618, 14, 0, 2031619, 14, 0, 2031620, 14, 0, 2031621, 14, 0, 2031622, 14, 0, 2031623, 14, 0, 2031624, 14, 0, 2031625, 14, 0, 2031626, 14, 0, 2031627, 14, 0, 2031628, 14, 0, 2031629, 14, 0, 2031630, 14, 0, 2031631, 14, 0, 2031632, 14, 0, 2031633, 14, 0, 2031634, 14, 0, 2031635, 14, 0, 2031636, 14, 0, 2031637, 14, 0, 2031638, 14, 0, 2031639, 14, 0, 2031640, 14, 0, 2031641, 14, 0, 2031642, 14, 0, 2031643, 14, 0, 2031644, 14, 0, 2031645, 14, 0, 2031646, 14, 0, 2031647, 14, 0, 2031648, 14, 0, 2031649, 14, 0, 2031650, 14, 0, 2031651, 14, 0, 2031652, 14, 0, 2031653, 14, 0, 2031654, 14, 0, 2031655, 14, 0, 2031656, 14, 0, 2031657, 14, 0, 2031658, 14, 0, 2031659, 14, 0, 2031660, 14, 0, 2031661, 14, 0, 2031662, 14, 0, 2031663, 14, 0, 2031664, 14, 0, 2031665, 14, 0, 2031666, 14, 0, 2031667, 14, 0, 2031668, 14, 0, 2031669, 14, 0, 2031670, 14, 0, 2031671, 14, 0, 2031672, 14, 0, 2031673, 14, 0, 2031674, 14, 0, 2031675, 14, 0, 2031676, 14, 0, 2031677, 14, 0, 2031678, 14, 0, 2031679, 14, 0, 2097152, 14, 0, 2097153, 14, 0, 2097154, 14, 0, 2097155, 14, 0, 2097156, 14, 0, 2097157, 14, 0, 2097158, 14, 0, 2097159, 14, 0, 2097160, 14, 0, 2097161, 14, 0, 2097162, 14, 0, 2097163, 14, 0, 2097164, 14, 0, 2097165, 14, 0, 2097166, 14, 0, 2097167, 14, 0, 2097168, 14, 0, 2097169, 14, 0, 2097170, 14, 0, 2097171, 14, 0, 2097172, 14, 0, 2097173, 14, 0, 2097174, 14, 0, 2097175, 14, 0, 2097176, 14, 0, 2097177, 14, 0, 2097178, 14, 0, 2097179, 14, 0, 2097180, 14, 0, 2097181, 14, 0, 2097182, 14, 0, 2097183, 14, 0, 2097184, 14, 0, 2097185, 14, 0, 2097186, 14, 0, 2097187, 14, 0, 2097188, 14, 0, 2097189, 14, 0, 2097190, 14, 0, 2097191, 14, 0, 2097192, 14, 0, 2097193, 14, 0, 2097194, 14, 0, 2097195, 14, 0, 2097196, 14, 0, 2097197, 14, 0, 2097198, 14, 0, 2097199, 14, 0, 2097200, 14, 0, 2097201, 14, 0, 2097202, 14, 0, 2097203, 14, 0, 2097204, 14, 0, 2097205, 14, 0, 2097206, 14, 0, 2097207, 14, 0, 2097208, 14, 0, 2097209, 14, 0, 2097210, 14, 0, 2097211, 14, 0, 2097212, 14, 0, 2097213, 14, 0, 2097214, 14, 0, 2097215, 14, 0, 2162688, 14, 0, 2162689, 14, 0, 2162690, 14, 0, 2162691, 14, 0, 2162692, 14, 0, 2162693, 14, 0, 2162694, 14, 0, 2162695, 14, 0, 2162696, 14, 0, 2162697, 14, 0, 2162698, 14, 0, 2162699, 14, 0, 2162700, 14, 0, 2162701, 14, 0, 2162702, 14, 0, 2162703, 14, 0, 2162704, 14, 0, 2162705, 14, 0, 2162706, 14, 0, 2162707, 14, 0, 2162708, 14, 0, 2162709, 14, 0, 2162710, 14, 0, 2162711, 14, 0, 2162712, 14, 0, 2162713, 14, 0, 2162714, 14, 0, 2162715, 14, 0, 2162716, 14, 0, 2162717, 14, 0, 2162718, 14, 0, 2162719, 14, 0, 2162720, 14, 0, 2162721, 14, 0, 2162722, 14, 0, 2162723, 14, 0, 2162724, 14, 0, 2162725, 14, 0, 2162726, 14, 0, 2162727, 14, 0, 2162728, 14, 0, 2162729, 14, 0, 2162730, 14, 0, 2162731, 14, 0, 2162732, 14, 0, 2162733, 14, 0, 2162734, 14, 0, 2162735, 14, 0, 2162736, 14, 0, 2162737, 14, 0, 2162738, 14, 0, 2162739, 14, 0, 2162740, 14, 0, 2162741, 14, 0, 2162742, 14, 0, 2162743, 14, 0, 2162744, 14, 0, 2162745, 14, 0, 2162746, 14, 0, 2162747, 14, 0, 2162748, 14, 0, 2162749, 14, 0, 2162750, 14, 0, 2162751, 14, 0, 2228224, 14, 0, 2228225, 14, 0, 2228226, 14, 0, 2228227, 14, 0, 2228228, 14, 0, 2228229, 14, 0, 2228230, 14, 0, 2228231, 14, 0, 2228232, 14, 0, 2228233, 14, 0, 2228234, 14, 0, 2228235, 14, 0, 2228236, 14, 0, 2228237, 14, 0, 2228238, 14, 0, 2228239, 14, 0, 2228240, 14, 0, 2228241, 14, 0, 2228242, 14, 0, 2228243, 14, 0, 2228244, 14, 0, 2228245, 14, 0, 2228246, 14, 0, 2228247, 14, 0, 2228248, 14, 0, 2228249, 14, 0, 2228250, 14, 0, 2228251, 14, 0, 2228252, 14, 0, 2228253, 14, 0, 2228254, 14, 0, 2228255, 14, 0, 2228256, 14, 0, 2228257, 14, 0, 2228258, 14, 0, 2228259, 14, 0, 2228260, 14, 0, 2228261, 14, 0, 2228262, 14, 0, 2228263, 14, 0, 2228264, 14, 0, 2228265, 14, 0, 2228266, 14, 0, 2228267, 14, 0, 2228268, 14, 0, 2228269, 14, 0, 2228270, 14, 0, 2228271, 14, 0, 2228272, 14, 0, 2228273, 14, 0, 2228274, 14, 0, 2228275, 14, 0, 2228276, 14, 0, 2228277, 14, 0, 2228278, 14, 0, 2228279, 14, 0, 2228280, 14, 0, 2228281, 14, 0, 2228282, 14, 0, 2228283, 14, 0, 2228284, 14, 0, 2228285, 14, 0, 2228286, 14, 0, 2228287, 14, 0, 2293760, 14, 0, 2293761, 14, 0, 2293762, 14, 0, 2293763, 14, 0, 2293764, 14, 0, 2293765, 14, 0, 2293766, 14, 0, 2293767, 14, 0, 2293768, 14, 0, 2293769, 14, 0, 2293770, 14, 0, 2293771, 14, 0, 2293772, 14, 0, 2293773, 14, 0, 2293774, 14, 0, 2293775, 14, 0, 2293776, 14, 0, 2293777, 14, 0, 2293778, 14, 0, 2293779, 14, 0, 2293780, 14, 0, 2293781, 14, 0, 2293782, 14, 0, 2293783, 14, 0, 2293784, 14, 0, 2293785, 14, 0, 2293786, 14, 0, 2293787, 14, 0, 2293788, 14, 0, 2293789, 14, 0, 2293790, 14, 0, 2293791, 14, 0, 2293792, 14, 0, 2293793, 14, 0, 2293794, 14, 0, 2293795, 14, 0, 2293796, 14, 0, 2293797, 14, 0, 2293798, 14, 0, 2293799, 14, 0, 2293800, 14, 0, 2293801, 14, 0, 2293802, 14, 0, 2293803, 14, 0, 2293804, 14, 0, 2293805, 14, 0, 2293806, 14, 0, 2293807, 14, 0, 2293808, 14, 0, 2293809, 14, 0, 2293810, 14, 0, 2293811, 14, 0, 2293812, 14, 0, 2293813, 14, 0, 2293814, 14, 0, 2293815, 14, 0, 2293816, 14, 0, 2293817, 14, 0, 2293818, 14, 0, 2293819, 14, 0, 2293820, 14, 0, 2293821, 14, 0, 2293822, 14, 0, 2293823, 14, 0, 2359296, 14, 0, 2359297, 14, 0, 2359298, 14, 0, 2359299, 14, 0, 2359300, 14, 0, 2359301, 14, 0, 2359302, 14, 0, 2359303, 14, 0, 2359304, 14, 0, 2359305, 14, 0, 2359306, 14, 0, 2359307, 14, 0, 2359308, 14, 0, 2359309, 14, 0, 2359310, 14, 0, 2359311, 14, 0, 2359312, 14, 0, 2359313, 14, 0, 2359314, 14, 0, 2359315, 14, 0, 2359316, 14, 0, 2359317, 14, 0, 2359318, 14, 0, 2359319, 14, 0, 2359320, 14, 0, 2359321, 14, 0, 2359322, 14, 0, 2359323, 14, 0, 2359324, 14, 0, 2359325, 14, 0, 2359326, 14, 0, 2359327, 14, 0, 2359328, 14, 0, 2359329, 14, 0, 2359330, 14, 0, 2359331, 14, 0, 2359332, 14, 0, 2359333, 14, 0, 2359334, 14, 0, 2359335, 14, 0, 2359336, 14, 0, 2359337, 14, 0, 2359338, 14, 0, 2359339, 14, 0, 2359340, 14, 0, 2359341, 14, 0, 2359342, 14, 0, 2359343, 14, 0, 2359344, 14, 0, 2359345, 14, 0, 2359346, 14, 0, 2359347, 14, 0, 2359348, 14, 0, 2359349, 14, 0, 2359350, 14, 0, 2359351, 14, 0, 2359352, 14, 0, 2359353, 14, 0, 2359354, 14, 0, 2359355, 14, 0, 2359356, 14, 0, 2359357, 14, 0, 2359358, 14, 0, 2359359, 14, 0, 2424832, 14, 0, 2424833, 14, 0, 2424834, 14, 0, 2424835, 14, 0, 2424836, 14, 0, 2424837, 14, 0, 2424838, 14, 0, 2424839, 14, 0, 2424840, 14, 0, 2424841, 14, 0, 2424842, 14, 0, 2424843, 14, 0, 2424844, 14, 0, 2424845, 14, 0, 2424846, 14, 0, 2424847, 14, 0, 2424848, 14, 0, 2424849, 14, 0, 2424850, 14, 0, 2424851, 14, 0, 2424852, 14, 0, 2424853, 14, 0, 2424854, 14, 0, 2424855, 14, 0, 2424856, 14, 0, 2424857, 14, 0, 2424858, 14, 0, 2424859, 14, 0, 2424860, 14, 0, 2424861, 14, 0, 2424862, 14, 0, 2424863, 14, 0, 2424864, 14, 0, 2424865, 14, 0, 2424866, 14, 0, 2424867, 14, 0, 2424868, 14, 0, 2424869, 14, 0, 2424870, 14, 0, 2424871, 14, 0, 2424872, 14, 0, 2424873, 14, 0, 2424874, 14, 0, 2424875, 14, 0, 2424876, 14, 0, 2424877, 14, 0, 2424878, 14, 0, 2424879, 14, 0, 2424880, 14, 0, 2424881, 14, 0, 2424882, 14, 0, 2424883, 14, 0, 2424884, 14, 0, 2424885, 14, 0, 2424886, 14, 0, 2424887, 14, 0, 2424888, 14, 0, 2424889, 14, 0, 2424890, 14, 0, 2424891, 14, 0, 2424892, 14, 0, 2424893, 14, 0, 2424894, 14, 0, 2424895, 14, 0 )
_sections_unfolded = [ "Cell" ]

[node name="ArchersTower" parent="." index="0" instance=ExtResource( 2 )]

position = Vector2( 464, 384 )

[node name="ArchersTower2" parent="." index="1" instance=ExtResource( 2 )]

position = Vector2( 528, 384 )

[node name="ArchersTower3" parent="." index="2" instance=ExtResource( 2 )]

position = Vector2( 480, 272 )

[node name="ArchersTower4" parent="." index="3" instance=ExtResource( 2 )]

position = Vector2( 320, 240 )

[node name="ArchersTower5" parent="." index="4" instance=ExtResource( 2 )]

position = Vector2( 480, 192 )

[node name="ArchersTower6" parent="." index="5" instance=ExtResource( 2 )]

position = Vector2( 208, 96 )

[node name="MainTower" parent="." index="6" instance=ExtResource( 3 )]

position = Vector2( 144, 304 )


