[gd_scene load_steps=4 format=2]

[ext_resource path="res://assets/tilemaps/mainatlas.png" type="Texture" id=1]
[ext_resource path="res://towers/MainTower.gd" type="Script" id=2]

[sub_resource type="RectangleShape2D" id=1]

custom_solver_bias = 0.0
extents = Vector2( 10, 10.1418 )

[node name="Sprite" type="Sprite"]

texture = ExtResource( 1 )
region_enabled = true
region_rect = Rect2( 541, 409, 18, 42 )
script = ExtResource( 2 )
_sections_unfolded = [ "Region" ]
__meta__ = {
"_edit_group_": true
}

[node name="RigidBody2D" type="KinematicBody2D" parent="." index="0"]

input_pickable = false
collision_layer = 1
collision_mask = 1
collision/safe_margin = 0.08

[node name="CollisionShape2D" type="CollisionShape2D" parent="RigidBody2D" index="0"]

position = Vector2( 0.074749, 0.328425 )
scale = Vector2( 0.917253, 2.06762 )
shape = SubResource( 1 )


